﻿Designator,Mid X,Mid Y,Rotation,Layer
C1,20.7,64.0,0.0,top
C10,119.38,57.15,90.0,top
C11,115.062,57.15,90.0,top
C2,20.7,61.25,0.0,top
C3,50.6,53.848,90.0,top
C4,54.9,53.848,270.0,top
C5,59.2,53.848,270.0,top
C6,85.344,35.56,90.0,top
C7,12.07,33.0,0.0,top
C8,42.1,17.6,180.0,top
C9,42.1,14.0,180.0,top
D1,64.516,53.848,270.0,top
D2,64.6,60.8,270.0,top
J1,11.04,69.81,270.0,top
J10,91.43,103.395,90.0,top
J11,128.27,49.51,270.0,top
J12,128.27,35.56,270.0,top
J2,67.945,12.192,0.0,top
J3,87.9475,12.192,0.0,top
J4,107.95,12.192,0.0,top
J5,16.5,5.525,180.0,top
J6,32.004,5.525,180.0,top
J7,45.212,5.525,180.0,top
J8,56.194,103.632,0.0,top
J9,128.27,64.71,270.0,top
Q1,39.56,90.2,180.0,top
Q2,39.56,82.4925,180.0,top
R1,90.424,35.56,270.0,top
R10,54.8,60.8,270.0,top
R11,46.8,82.58,270.0,top
R12,12.0575,29.0,0.0,top
R13,12.0575,24.0,180.0,top
R14,131.064,82.55,270.0,top
R15,131.064,90.2,270.0,top
R2,75.184,35.56,270.0,top
R3,70.104,35.56,270.0,top
R4,65.024,35.56,270.0,top
R5,46.8,90.2,90.0,top
R6,53.34,90.2,90.0,top
R7,80.264,35.56,90.0,top
R8,102.87,31.5,0.0,top
R9,102.87,39.5,0.0,top
SW1,10.541,53.34,270.0,top
U1,94.615,86.36,0.0,top
U2,38.48,59.1,270.0,top
U3,114.235,64.645,270.0,top
U4,19.15,92.71,180.0,top
U5,114.235,35.56,270.0,top
U6,20.955,27.94,270.0,top
U7,47.244,29.808,270.0,top
U8,90.85,58.23,270.0,top
